**************************************
Homework 3: 2020-06-10 10:53:17.040971
**************************************
Question 1: 20/20
**************************************
Question 2: 40/40
**************************************
Question 3: 10/20
 -Comment 1: not same checksum
**************************************
Question 4: 20/20
**************************************
Grade: 5.60